{
      "name": "Performance Motors Limited",
      "description": "Based in Singapore, BMW Group Asia is the regional hub overseeing the East Asia region comprising 14 markets including: Bangladesh, Brunei, Cambodia, Guam, Indonesia, Laos, Myanmar, Nepal, New Caledonia, Philippines, Singapore, Sri Lanka, Tahiti and Vietnam.",
      "peopleInCharge": [
        {
          "department": "IT",
          "name": "BMW IT Services Singapore Pte Ltd",
          "jobTitle": "IT",
          "phone": "6568389701",
          "email": "test@email.com"
        },
        {
          "department": "ENHANCE_ADD_VEHICLE",
          "name": "tets",
          "jobTitle": "test",
          "phone": "+60839833",
          "email": "test@gmail.com"
        }
      ],
      "registrationNumber": "197401559W",
      "type": "Authorized Dealer",
      "appIdentifiers": [
        "com.performancemotors.android.customer.staging",
        "com.performancemotors.ios.customer.staging",
        "com.performancemotors.ios.customer.development",
        "com.performancemotors.android.customer.development"
      ],
      "socialAccounts": [
        {
          "account": "Facebook",
          "url": "https://www.facebook.com/BMWSingapore/",
          "icon": "https://wm-staging-asset.s3-ap-southeast-1.amazonaws.com/product/image/Facebook.png"
        },
        {
          "account": "Instagram",
          "url": "https://www.instagram.com/bmwsingapore/",
          "icon": "https://wm-staging-asset.s3-ap-southeast-1.amazonaws.com/product/image/Instagram.png"
        }
      ],
      "configuration": {
        "synchronization": {
          "active": false,
          "account": {
            "active": false
          }
        },
        "calendar": {
          "active": false
        },
        "reminder": {
          "active": false
        },
        "model": {
          "active": true,
          "sale": {
            "fulfillments": [
              {
                "title": "RCO",
                "order": 0,
                "description": "RCO",
                "type": "RCO",
                "rco": {
                  "signature": {
                    "isRequired": false
                  }
                }
              },
              {
                "title": "Collection",
                "order": 1,
                "description": "Collect Lah",
                "type": "CALENDAR",
                "calendar": {
                  "isRequired": true
                }
              }
            ]
          }
        },
        "subscriptions": {
          "modules": [
            {
              "name": "Mobile service",
              "description": "Lorem Ipsum is simply dummy text of the printing and typesetting industry.",
              "key": "Mobile Service"
            },
            {
              "name": "Service Center",
              "description": "It has survived not only five centuries, but also the leap into electronic typesetting, remaining essentially unchanged.",
              "key": "Service Center",
              "options": {
                "services": [
                  {
                    "title": "Battery",
                    "calendarType": "Service",
                    "description": "It was popularised in the 1960s with the release of Letraset sheets containing Lorem Ipsum passages, and more recently with desktop publishing",
                    "active": true
                  },
                  {
                    "title": "Brake pad",
                    "calendarType": "Repair",
                    "description": "Lorem Ipsum passages, and more recently with desktop publishing",
                    "active": true
                  }
                ]
              }
            }
          ],
          "plan": {
            "autoRenew": false
          }
        },
        "vehicles": {
          "coverages": [
            {
              "brand": "BMW",
              "mobileService": true,
              "serviceCenter": true
            }
          ]
        },
        "reports": {
          "email": "pml@autobavaria.com.my"
        },
        "email": {
          "name": "Performance Motors Limited",
          "address": "pml@autobavaria.com.my",
          "authentication": {
            "username": "AKIAWUDPVI2HFFC5AUAF",
            "password": "BCc8WlEWL0zMQr5cYq7ERR9B5mnyKqxjM5UrBsU4GDSq",
            "port": 25,
            "host": "email-smtp.us-east-1.amazonaws.com",
            "ssl": false
          }
        },
        "locale": {
          "countryCode": "SG"
        },
        "web": {
          "redirection": {
            "success": "https://www.whipmobility.com/",
            "error": "https://www.whipmobility.com/"
          }
        },
        "appFeatures": {
          "account": {
            "authentication": {
              "magicLink": true,
              "social": {
                "active": true,
                "facebook": true,
                "gmail": true,
                "apple": true,
                "facebookAccessToken": "641857729989235|ERke4oC77qeVWFYZCrBnQSDSzcY"
              },
              "custom": {
                "active": true,
                "myInfo": true,
                "singPass": {
                  "active": true,
                  "attributes": "partialuinfin,name,sex,mobileno,email,vehicles.vehicleno,vehicles.type,vehicles.iulabelno,vehicles.make,vehicles.model,vehicles.chassisno,vehicles.engineno,vehicles.motorno,vehicles.yearofmanufacture,vehicles.firstregistrationdate,vehicles.originalregistrationdate,vehicles.coecategory,vehicles.coeexpirydate,vehicles.roadtaxexpirydate,vehicles.quotapremium,vehicles.openmarketvalue,vehicles.co2emission,vehicles.status,vehicles.primarycolour,vehicles.secondarycolour,vehicles.attachment1,vehicles.attachment2,vehicles.attachment3,vehicles.scheme,vehicles.thcemission,vehicles.coemission,vehicles.noxemission,vehicles.pmemission,vehicles.enginecapacity,vehicles.powerrate,vehicles.effectiveownership,vehicles.propellant,vehicles.maximumladenweight,vehicles.minimumparfbenefit,vehicles.nooftransfers,vehicles.vpc,race,residentialstatus,nationality,regadd,drivinglicence.comstatus,drivinglicence.pdl.validity,drivinglicence.pdl.expirydate,drivinglicence.pdl.classes,drivinglicence.qdl.expirydate,drivinglicence.qdl.classes",
                  "callback": {
                    "url": "http://localhost:3001/callback",
                    "token": "4tHjHzfhUFvzY6Ruhrc7yWt"
                  },
                  "client": {
                    "id": "STG2-MYINFO-SELF-TEST",
                    "secret": "44d953c796cccebcec9bdc826852857ab412fbe2"
                  }
                }
              }
            },
            "profile": {
              "document": {
                "active": true,
                "types": [
                  {
                    "key": "SINGAPORE_NRIC",
                    "value": "Singapore NRIC"
                  },
                  {
                    "key": "STATE_ID",
                    "value": "stateId"
                  }
                ]
              }
            },
            "salutations": [
              "MR",
              "MS",
              "MRS",
              "MDM",
              "DR",
              "CAPTAIN",
              "DATO",
              "DATIN",
              "PROFESSOR",
              "JUS"
            ]
          },
          "postServiceInspection": {
            "active": false
          },
          "analytics": {
            "pendo": {
              "active": true
            }
          },
          "serviceCenter": {
            "mileage": false,
            "anyCSO": false,
            "logistic": false
          },
          "nextService": {
            "nextServiceBooking": {
              "active": false,
              "customerApp": false,
              "cdkExistingCustomer": false,
              "cdkNewCustomer": false,
              "general": false
            }
          },
          "autoClassifications": {
            "isSynchClassify": false,
            "isAutoClassify": true
          },
          "mobileService": {
            "mileage": false,
            "anyCSO": false,
            "logistic": false
          },
          "home": {
            "helpCenter": {
              "active": true,
              "call": {
                "generalLine": {
                  "active": true,
                  "number": "+65 6896 3933"
                },
                "insurance": {
                  "active": false,
                  "number": "+65 6565 9200"
                },
                "roadSideAssist": {
                  "active": true,
                  "number": "+65 6565 9200"
                }
              },
              "enquiry": {
                "active": true,
                "divisions": [
                  "Marketing",
                  "IT",
                  "Aftersales"
                ],
                "topics": [
                  "Topic test PML"
                ]
              },
              "liveChat": false,
              "whatsApp": {
                "active": false
              }
            },
            "panel": {
              "inProgress": {
                "active": false,
                "mobileService": {
                  "active": false,
                  "isTrackAndChat": false
                },
                "serviceCenter": {
                  "active": false,
                  "isTrackAndChat": false
                }
              }
            },
            "displayAdditionalInformation": {
              "navigationBarAppLogo": false,
              "profileDetails": true,
              "enquiry": false,
              "enquiryBranch": false,
              "enquiryDivision": true,
              "wishList": true,
              "insuranceRenewal": false,
              "hotDealsList": true
            }
          },
          "vehicle": {
            "register": {
              "lta": true,
              "enhanceAddVehicle": {
                "active": false,
                "numberPlate": {
                  "active": false,
                  "mandatory": false
                },
                "identificationNumber": {
                  "active": false,
                  "mandatory": false
                },
                "documentTypeAndId": {
                  "active": false,
                  "mandatory": false
                },
                "identificationCard": {
                  "active": false,
                  "mandatory": false
                },
                "registrationCard": {
                  "active": false,
                  "mandatory": false
                },
                "additionalDocument": {
                  "active": false,
                  "mandatory": false
                }
              }
            },
            "profile": {
              "vehicleDetails": {
                "active": true,
                "vehicleSpecs": true,
                "tyreSpecs": false,
                "insurancePolicies": true,
                "alternateDrivers": true,
                "tradeIn": {
                  "active": true,
                  "sources": [
                    "AGENT",
                    "PARALLEL",
                    "NOT_SURE"
                  ],
                  "inspection": {
                    "active": false
                  }
                },
                "insurance": {
                  "active": true,
                  "names": [
                    "Devina is testing"
                  ]
                },
                "warranty": {
                  "active": true
                },
                "roadTax": {
                  "active": true
                }
              },
              "serviceDetails": {
                "active": true,
                "serviceHistories": true,
                "inspectionDetails": false
              },
              "externalApps": {
                "active": true,
                "bmwDriversGuide": true
              }
            }
          },
          "service": {
            "mobileService": true,
            "serviceCenter": true,
            "digitalRepairOrder": {
              "active": false,
              "disclaimer": {
                "active": false
              },
              "termsAndCondition": {
                "active": false
              },
              "reservationApproval": false,
              "manualReservationApproval": {
                "active": false
              },
              "retrieval": {
                "active": false
              },
              "rejectionReason": false,
              "autoRoRetrieval": false
            },
            "serviceRecommendation": {
              "active": false,
              "serviceLines": {
                "active": false
              },
              "servicePackages": {
                "active": false
              }
            },
            "digitalInvoice": {
              "active": false,
              "autoDispatch": {
                "active": false
              }
            }
          },
          "testDrive": {
            "location": true,
            "showRoom": true,
            "loanType": "INTERNAL",
            "appointment": {
              "cancel": true,
              "reschedule": true
            }
          },
          "model": {
            "preOwnedModelUrl": "https://www.ppsl-bmw.sg/cars",
            "sale": {
              "tradeIn": {
                "active": true,
                "type": "SINGAPORE"
              },
              "insurance": {
                "active": true,
                "type": "SINGAPORE"
              },
              "loan": {
                "active": false
              },
              "active": true,
              "bank": {
                "new": [
                  {
                    "name": "Maybank",
                    "uuid": "d9bd07e0-769d-4b8d-8c38-8291a69d8fe4",
                    "logo": "https://wm-sandbox-asset.s3-ap-southeast-1.amazonaws.com/other/banks/maybank.jpeg",
                    "interestRate": 0.03,
                    "isDefault": true,
                    "downPayment": {
                      "type": "PERCENTAGE",
                      "amount": 0.02
                    },
                    "period": {
                      "min": 2,
                      "max": 9
                    }
                  }
                ]
              }
            }
          },
          "widgets": [
            {
              "name": "Locate Us",
              "type": "LOCATIONS",
              "icon": "https://wm-staging-asset.s3-ap-southeast-1.amazonaws.com/corporate/image/widgets/locations.png",
              "order": 1,
              "active": true
            },
            {
              "name": "Models",
              "type": "MODELS",
              "icon": "https://wm-sandbox-asset.s3.ap-southeast-1.amazonaws.com/Explore+Us+Icons/Buy+New.png",
              "order": 2,
              "active": true
            },
            {
              "name": "Pre-owned Web",
              "type": "PRE_OWNED_WEB",
              "icon": "https://wm-sandbox-asset.s3.ap-southeast-1.amazonaws.com/Explore+Us+Icons/Pre-owned.png",
              "order": 3,
              "active": true,
              "url": "https://ppsl.sg/bmw/index.php"
            },
            {
              "name": "Value My Car",
              "type": "VALUE_MY_CAR",
              "icon": "https://wm-sandbox-asset.s3.ap-southeast-1.amazonaws.com/Explore+Us+Icons/Value+My+Car.png",
              "order": 4,
              "active": true
            },
            {
              "name": "Loan Calculator",
              "type": "LOAN_CALCULATOR_WEB",
              "icon": "https://wm-sandbox-asset.s3.ap-southeast-1.amazonaws.com/Explore+Us+Icons/Loan+Calculator.png",
              "order": 5,
              "active": true,
              "url": "https://pml-bmw.com.sg/calculator/?source=page-financing-options-straight-line-finance"
            },
            {
              "name": "Service Appointment",
              "type": "SERVICE_APPOINTMENT",
              "icon": "https://wm-sandbox-asset.s3.ap-southeast-1.amazonaws.com/Explore+Us+Icons/Service+Appointment.png",
              "order": 6,
              "active": true
            },
            {
              "name": "Pre-Owned",
              "type": "PRE_OWNED",
              "icon": "https://wm-sandbox-asset.s3.ap-southeast-1.amazonaws.com/Explore+Us+Icons/Pre-owned.png",
              "order": 7,
              "active": true
            },
            {
              "name": "SOS",
              "type": "SOS",
              "icon": "https://wm-sandbox-asset.s3.ap-southeast-1.amazonaws.com/Explore+Us+Icons/SOS.png",
              "order": 8,
              "active": true
            },
            {
              "name": "Accessories ",
              "type": "ACCESSORIES",
              "icon": "https://wm-sandbox-asset.s3.ap-southeast-1.amazonaws.com/Explore+Us+Icons/Accessories+(4).png",
              "order": 9,
              "active": true,
              "url": "https://shop.pml-bmw.com.sg/"
            }
          ],
          "lead": {
            "active": false,
            "salesLead": {
              "active": false,
              "questionnaire": {
                "active": false
              }
            }
          },
          "rating": {
            "active": false,
            "title": "title"
          },
          "preOwned": {
            "stream": {
              "username": "stock@simedarby.com.sg",
              "password": "Z8DTR5zAZGhQGcxm",
              "source": "SDAS",
              "active": true,
              "urls": [
                {
                  "version": "1.0",
                  "set": {
                    "listPreOwnedVehicles": "https://api.adtorqueedge.com/stock/sdas/results",
                    "getAvailableFilters": "https://api.adtorqueedge.com/stock/sdas/filters",
                    "getVehicleDetails": "https://api.adtorqueedge.com/stock/sdas/details",
                    "getVehicleSpecification": "https://api.adtorqueedge.com/stock/sdas/specifications"
                  }
                }
              ]
            },
            "testDrive": {
              "active": true,
              "cancelAppointment": true,
              "rescheduleAppointment": true
            },
            "sales": {
              "active": true
            },
            "soldVehicle": {
              "active": false
            },
            "registrationDate": {
              "active": false
            },
            "finance": {
              "active": false
            },
            "checkpoint": {
              "active": false
            },
            "filter": {
              "active": false,
              "price": {
                "increment": false,
                "elements": [
                  {
                    "title": "1",
                    "max": "1",
                    "min": "1"
                  },
                  {
                    "title": "1",
                    "max": "1",
                    "min": "21"
                  },
                  {
                    "title": "221",
                    "max": "3123",
                    "min": "231"
                  },
                  {
                    "title": "332",
                    "max": "3332",
                    "min": "122"
                  }
                ]
              },
              "age": {
                "active": false,
                "increment": false,
                "elements": [
                  {
                    "title": "231213",
                    "max": "1323123123",
                    "min": "31231231"
                  },
                  {
                    "title": "1231231",
                    "max": "132313",
                    "min": "13231231"
                  },
                  {
                    "title": "312313123",
                    "max": "31213123123",
                    "min": "123123123"
                  },
                  {
                    "title": "1231231",
                    "max": "12312312333",
                    "min": "2312312333"
                  }
                ]
              },
              "vehicleMake": {
                "active": false
              },
              "vehicleModel": {
                "active": false
              },
              "sortBy": {
                "active": false
              },
              "quickFilter": {
                "active": true,
                "monthlyInstallment": {
                  "active": true,
                  "maxRange": 10000
                },
                "bodyType": {
                  "active": true
                }
              }
            }
          }
        },
        "salesforce": {
          "webHook": {
            "url": "services/apexrest/cust/v1.0/webhook",
            "active": true
          },
          "companyId": "02",
          "source": "services/apexrest/cust/v1.0/webhook",
          "accountSynchronization": {
            "company": "Performance Motors Ltd",
            "url": "services/apexrest/cust/v1.0/account/sync",
            "active": true
          }
        },
        "cdk": {
          "active": false
        },
        "watermark": {
          "active": false
        },
        "firebase": {
          "customerApp": {
            "androidPackageName": "com.performancemotors.android.customer.staging",
            "iosBundleId": "com.performancemotors.ios.customer.staging",
            "iosStoreId": "1508157084",
            "baseUrl": "https://performancemotorsstaging.page.link"
          }
        }
      }
    }